Wynne,Reynolds,5319 Scelerisque Rd,8647773860
Elton,Oneill,P.O. Box 257 8332 Quisque St,1159124483
Abel,Contreras,Ap #586-3421 Molestie St,7143504554
Keaton,Baxter,P.O. Box 900 8401 Egestas Avenue,6285740324
Haley,Mcmillan,771-7116 Eu Rd,7037276748
Rhoda,Malone,1057 Dis Avenue,3138698851
Upton,Singleton,Ap #298-7930 Erat St.,5945335686
Jade,Blankenship,4842 Dictum Av.,4056561083
Shelby,Terrell,P.O. Box 967 1335 Eu Ave,8007959435
Hammett,Bass,7117 Ultrices. Ave,8986991794